*** Darwin 8x8 ***
Turn = 0.
  01234567
0 ......tr
1 ........
2 ......r.
3 ........
4 ......r.
5 .r...t..
6 ........
7 ........

Turn = 1.
  01234567
0 ......tr
1 ........
2 .......r
3 ........
4 .......r
5 ..r..t..
6 ........
7 ........

Turn = 2.
  01234567
0 ......tr
1 ........
2 .......r
3 ........
4 .......r
5 ...r.t..
6 ........
7 ........

Turn = 3.
  01234567
0 ......tr
1 ........
2 ........
3 .......r
4 ........
5 ....rt.r
6 ........
7 ........

Turn = 4.
  01234567
0 ......tt
1 ........
2 ........
3 ........
4 .....r.r
5 ....r...
6 .......r
7 ........

Turn = 5.
  01234567
0 ......tt
1 ........
2 ........
3 .....r..
4 ........
5 .....r.r
6 ........
7 .......r

*** Darwin 8x8 ***
Turn = 0.
  01234567
0 ..ff....
1 ........
2 ........
3 .r......
4 ..r.h...
5 .....r..
6 ..r.....
7 ........

Turn = 2.
  01234567
0 ..ff....
1 ........
2 ..r.....
3 r.......
4 ..h.....
5 ........
6 ....r...
7 .....r..

Turn = 4.
  01234567
0 ..rf....
1 r.r.....
2 ........
3 ........
4 h.......
5 ........
6 ......r.
7 ......r.

Turn = 6.
  01234567
0 r.rr....
1 ...r....
2 ........
3 ........
4 h.......
5 ........
6 .......r
7 .......r

*** Darwin 8x8 ***
Turn = 0.
  01234567
0 ......r.
1 .......r
2 h......r
3 ........
4 ........
5 ........
6 ...f..r.
7 ........

Turn = 1.
  01234567
0 ........
1 ......rr
2 .h......
3 .......r
4 ........
5 ........
6 ...f.r..
7 ........

Turn = 2.
  01234567
0 ........
1 ........
2 ..h...rr
3 ........
4 .......r
5 ........
6 ...fr...
7 ........

Turn = 3.
  01234567
0 ........
1 ........
2 ...h....
3 ......rr
4 ........
5 .......r
6 ...rr...
7 ........

Turn = 4.
  01234567
0 ........
1 ........
2 ....h...
3 ........
4 ......rr
5 ........
6 ...rr..r
7 ........

Turn = 5.
  01234567
0 ........
1 ........
2 .....h..
3 ........
4 ........
5 ...rr.rr
6 ........
7 .......r

Turn = 6.
  01234567
0 ........
1 ........
2 ......h.
3 ........
4 ...rr...
5 ........
6 ......rr
7 .......r

Turn = 7.
  01234567
0 ........
1 ........
2 .......h
3 ...rr...
4 ........
5 ........
6 .......r
7 ......rr

Turn = 8.
  01234567
0 ........
1 ........
2 ...rr..h
3 ........
4 ........
5 ........
6 ......rr
7 ......r.

*** Darwin 8x8 ***
Turn = 0.
  01234567
0 r.......
1 f.hr....
2 ...h....
3 ........
4 ........
5 .......r
6 ........
7 f....t..

Turn = 3.
  01234567
0 r...r...
1 fh......
2 ......h.
3 ........
4 ........
5 ........
6 ........
7 f....t.r

Turn = 6.
  01234567
0 ..r....r
1 fh......
2 .......h
3 ........
4 ........
5 ........
6 ........
7 f...rr..

Turn = 9.
  01234567
0 .....rr.
1 fh......
2 .......h
3 ........
4 ........
5 ........
6 ........
7 frr.....

*** Darwin 8x8 ***
Turn = 0.
  01234567
0 ........
1 ........
2 ...r..hh
3 ........
4 .t.t...r
5 ........
6 ........
7 ....h...

Turn = 3.
  01234567
0 ........
1 ........
2 ......hh
3 ...r....
4 .tr.h...
5 ........
6 .......r
7 ........

Turn = 6.
  01234567
0 ........
1 ....h...
2 ......hh
3 r.r.....
4 ........
5 .r......
6 ........
7 ......r.

Turn = 9.
  01234567
0 ..r.h...
1 ........
2 ......hh
3 ........
4 ........
5 r.......
6 ........
7 .r.r....

*** Darwin 8x8 ***
Turn = 0.
  01234567
0 ....f...
1 ........
2 ........
3 .....t..
4 .....h..
5 ........
6 ........
7 ........

Turn = 1.
  01234567
0 ....f...
1 ........
2 ........
3 .....t..
4 .....h..
5 ........
6 ........
7 ........

Turn = 2.
  01234567
0 ....f...
1 ........
2 ........
3 .....t..
4 .....h..
5 ........
6 ........
7 ........

Turn = 3.
  01234567
0 ....f...
1 ........
2 ........
3 .....t..
4 .....t..
5 ........
6 ........
7 ........

Turn = 4.
  01234567
0 ....f...
1 ........
2 ........
3 .....t..
4 .....t..
5 ........
6 ........
7 ........

Turn = 5.
  01234567
0 ....f...
1 ........
2 ........
3 .....t..
4 .....t..
5 ........
6 ........
7 ........

Turn = 6.
  01234567
0 ....f...
1 ........
2 ........
3 .....t..
4 .....t..
5 ........
6 ........
7 ........

*** Darwin 8x8 ***
Turn = 0.
  01234567
0 ...r....
1 ........
2 ........
3 ........
4 ........
5 ......r.
6 ....fh..
7 ......h.

Turn = 2.
  01234567
0 ....r...
1 ........
2 ........
3 ......r.
4 ........
5 ......h.
6 ....f...
7 .....h..

Turn = 4.
  01234567
0 ......r.
1 ......r.
2 ........
3 ......h.
4 ........
5 ........
6 ....f...
7 .....h..

Turn = 6.
  01234567
0 ......rr
1 ......h.
2 ........
3 ........
4 ........
5 ........
6 ....f...
7 .....h..

*** Darwin 8x8 ***
Turn = 0.
  01234567
0 ........
1 .r......
2 ........
3 ........
4 ...t....
5 ........
6 ........
7 ..t....f

Turn = 1.
  01234567
0 ........
1 ..r.....
2 ........
3 ........
4 ...t....
5 ........
6 ........
7 ..t....f

Turn = 2.
  01234567
0 ........
1 ...r....
2 ........
3 ........
4 ...t....
5 ........
6 ........
7 ..t....f

Turn = 3.
  01234567
0 ........
1 ....r...
2 ........
3 ........
4 ...t....
5 ........
6 ........
7 ..t....f

Turn = 4.
  01234567
0 ........
1 .....r..
2 ........
3 ........
4 ...t....
5 ........
6 ........
7 ..t....f

Turn = 5.
  01234567
0 ........
1 ......r.
2 ........
3 ........
4 ...t....
5 ........
6 ........
7 ..t....f

Turn = 6.
  01234567
0 ........
1 .......r
2 ........
3 ........
4 ...t....
5 ........
6 ........
7 ..t....f

Turn = 7.
  01234567
0 ........
1 .......r
2 ........
3 ........
4 ...t....
5 ........
6 ........
7 ..t....f

Turn = 8.
  01234567
0 ........
1 ........
2 .......r
3 ........
4 ...t....
5 ........
6 ........
7 ..t....f

Turn = 9.
  01234567
0 ........
1 ........
2 ........
3 .......r
4 ...t....
5 ........
6 ........
7 ..t....f

*** Darwin 8x8 ***
Turn = 0.
  01234567
0 .......h
1 ........
2 ........
3 ........
4 ........
5 ........
6 ....h...
7 f.......

Turn = 1.
  01234567
0 ......h.
1 ........
2 ........
3 ........
4 ........
5 ........
6 ...h....
7 f.......

Turn = 2.
  01234567
0 .....h..
1 ........
2 ........
3 ........
4 ........
5 ........
6 ..h.....
7 f.......

*** Darwin 8x8 ***
Turn = 0.
  01234567
0 ........
1 ........
2 ........
3 .r......
4 h.......
5 ......t.
6 ....r...
7 .....h..

Turn = 2.
  01234567
0 ........
1 ........
2 ........
3 r.......
4 h...r...
5 ......t.
6 ........
7 .....h..

Turn = 4.
  01234567
0 ........
1 r.......
2 h...r...
3 ........
4 ........
5 ......t.
6 ........
7 .....h..

Turn = 6.
  01234567
0 r...r...
1 h.......
2 ........
3 ........
4 ........
5 ......t.
6 ........
7 .....h..

Turn = 8.
  01234567
0 r....r..
1 h.......
2 ........
3 ........
4 ........
5 ......t.
6 ........
7 .....h..

*** Darwin 8x8 ***
Turn = 0.
  01234567
0 ..f.ht.h
1 f.......
2 ..hh....
3 ........
4 ........
5 ........
6 .....t..
7 ........

Turn = 1.
  01234567
0 ..f..th.
1 f..hh...
2 .h......
3 ........
4 ........
5 ........
6 .....t..
7 ........

Turn = 2.
  01234567
0 ..fh.th.
1 f.......
2 h...h...
3 ........
4 ........
5 ........
6 .....t..
7 ........

Turn = 3.
  01234567
0 ..fh.th.
1 f.......
2 h.......
3 ....h...
4 ........
5 ........
6 .....t..
7 ........

*** Darwin 2x2 ***
Turn = 0.
  01
0 h.
1 ..

Turn = 1.
  01
0 .h
1 ..
