*** Darwin 10x11 ***
Turn = 0.
  01234567890
0 .......r...
1 ...........
2 ..f...r....
3 ........t.t
4 t..........
5 h..f.......
6 ..t.th.....
7 .......h...
8 ....t......
9 t...r......

Turn = 4.
  01234567890
0 ..........r
1 ...........
2 ..rr.h.....
3 ........t.t
4 t..........
5 ...f.......
6 ..t.t......
7 ...........
8 h...t......
9 tr.....h...

Turn = 8.
  01234567890
0 ...r.h.....
1 ...........
2 r.........r
3 ........t.t
4 t..........
5 ...f.......
6 ..t.t......
7 ...........
8 t...t......
9 rr.....h...

*** Darwin 11x12 ***
Turn = 0.
  012345678901
0 ............
1 fh...h......
2 ............
3 ....r.......
4 ............
5 ............
6 ............
7 ............
8 ......f.....
9 ....r......t
0 ...........h

Turn = 4.
  012345678901
0 .....h......
1 f....h......
2 ............
3 ........r...
4 ............
5 ....r.......
6 ............
7 ............
8 ......f.....
9 ...........t
0 ...........t

*** Darwin 9x5 ***
Turn = 0.
  01234
0 t....
1 ....f
2 ...t.
3 .h.tr
4 f....
5 ....r
6 .....
7 ..h..
8 ...tt

Turn = 1.
  01234
0 t....
1 ....f
2 ...tr
3 h..t.
4 f...r
5 .....
6 ..h..
7 .....
8 ...tt

Turn = 2.
  01234
0 t....
1 ....r
2 ...tr
3 h..tr
4 f....
5 ..h..
6 .....
7 .....
8 ...tt

Turn = 3.
  01234
0 t...r
1 ....r
2 ...t.
3 h..tt
4 f.h..
5 .....
6 .....
7 .....
8 ...tt

*** Darwin 5x9 ***
Turn = 0.
  012345678
0 ..t......
1 .........
2 r........
3 ....f....
4 ..hf.f...

Turn = 1.
  012345678
0 ..t......
1 .........
2 .........
3 r.h.f....
4 ...f.f...

Turn = 2.
  012345678
0 ..t......
1 .........
2 ..h......
3 ....f....
4 r..f.f...

Turn = 3.
  012345678
0 ..t......
1 ..h......
2 .........
3 ....f....
4 r..f.f...

Turn = 4.
  012345678
0 ..t......
1 ..h......
2 .........
3 ....f....
4 r..f.f...

Turn = 5.
  012345678
0 ..t......
1 ..h......
2 .........
3 ....f....
4 r..f.f...

Turn = 6.
  012345678
0 ..t......
1 ..t......
2 .........
3 ....f....
4 r..f.f...

Turn = 7.
  012345678
0 ..t......
1 ..t......
2 .........
3 r...f....
4 ...f.f...

Turn = 8.
  012345678
0 ..t......
1 ..t......
2 r........
3 ....f....
4 ...f.f...

*** Darwin 7x8 ***
Turn = 0.
  01234567
0 ..r.h.t.
1 .fr.r...
2 ..t....r
3 .....f..
4 t..f.r..
5 ....r...
6 .r.h....

Turn = 5.
  01234567
0 ..r...tr
1 .rrr....
2 .r.r....
3 .....rr.
4 t..f....
5 ........
6 ..r.r..r

*** Darwin 9x5 ***
Turn = 0.
  01234
0 ..f..
1 .h..r
2 .t...
3 ..h..
4 ..t..
5 ht...
6 .....
7 .....
8 .t..h

Turn = 1.
  01234
0 ..f.r
1 h....
2 .th..
3 .....
4 ..t..
5 tt...
6 .....
7 .....
8 .t..h

Turn = 2.
  01234
0 ..f.r
1 h.h..
2 .t...
3 .....
4 ..t..
5 tt...
6 .....
7 .....
8 .t..h

*** Darwin 13x9 ***
Turn = 0.
  012345678
0 .....h...
1 .........
2 ...h.....
3 .........
4 .f.......
5 ....r.r..
6 ....h....
7 h.......h
8 t........
9 ....h....
0 .........
1 ....r....
2 ........r

Turn = 1.
  012345678
0 .........
1 .....h...
2 ....h....
3 .........
4 .f.......
5 ....r....
6 ...r..r..
7 h......h.
8 t........
9 .........
0 ....h....
1 ........r
2 ....r....

Turn = 2.
  012345678
0 .........
1 .........
2 ....hh...
3 .........
4 .f.......
5 .........
6 ..r.r....
7 h.....rh.
8 t........
9 .........
0 ........r
1 ....h....
2 ....r....

Turn = 3.
  012345678
0 .........
1 .........
2 ....h....
3 .....h...
4 .f.......
5 .........
6 .r.......
7 h...r.h..
8 t.....r..
9 ........r
0 .........
1 ....h....
2 ...r.....

Turn = 4.
  012345678
0 .........
1 .........
2 .....h...
3 .........
4 .f...h...
5 .........
6 r........
7 t....h...
8 t...r...r
9 ......r..
0 .........
1 .........
2 ..r.h....

Turn = 5.
  012345678
0 .........
1 .........
2 ......h..
3 .........
4 .f.......
5 .....h...
6 r........
7 t...h...r
8 t........
9 ....r....
0 ......r..
1 .........
2 .r..h....

Turn = 6.
  012345678
0 .........
1 .........
2 .......h.
3 .........
4 .f.......
5 .........
6 r....h..r
7 r..h.....
8 r........
9 .........
0 ....r....
1 ......r..
2 r...h....

Turn = 7.
  012345678
0 .........
1 .........
2 ........h
3 .........
4 .f.......
5 ........r
6 r........
7 r.h..h...
8 r........
9 .........
0 .........
1 ....r....
2 r...h.r..

Turn = 8.
  012345678
0 .........
1 .........
2 ........h
3 .........
4 .f......r
5 .........
6 r........
7 rh.......
8 .r...h...
9 .........
0 .........
1 ....r....
2 r...r.r..

*** Darwin 9x6 ***
Turn = 0.
  012345
0 ......
1 ....r.
2 .r..ht
3 h...t.
4 .....f
5 fh....
6 f...r.
7 ...hr.
8 .h....

Turn = 4.
  012345
0 .....r
1 ......
2 ....tr
3 rr..r.
4 ...rrf
5 f..h..
6 rr....
7 ......
8 .h....

Turn = 8.
  012345
0 rr.r..
1 ...r..
2 r..htr
3 rr..t.
4 ....tf
5 ......
6 ......
7 ......
8 .h....

*** Darwin 13x8 ***
Turn = 0.
  01234567
0 ........
1 .......t
2 ........
3 .......t
4 f.......
5 h.r.....
6 .......r
7 .f......
8 .h....h.
9 ........
0 .f......
1 ..h.....
2 ........

Turn = 3.
  01234567
0 ........
1 .......t
2 ........
3 .......t
4 r.......
5 rr......
6 ....r...
7 .f......
8 .h......
9 ........
0 .f......
1 .....hh.
2 ........

*** Darwin 5x6 ***
Turn = 0.
  012345
0 .r....
1 ....h.
2 ......
3 ..r.h.
4 ......

Turn = 2.
  012345
0 r.....
1 ......
2 ......
3 ...rrh
4 ......

Turn = 4.
  012345
0 r.....
1 ......
2 ......
3 .....h
4 ...rr.

Turn = 6.
  012345
0 .r....
1 ......
2 ......
3 .....h
4 ...rr.

*** Darwin 13x7 ***
Turn = 0.
  0123456
0 .......
1 .......
2 .......
3 .......
4 ......f
5 .......
6 .......
7 .......
8 .......
9 .....t.
0 .......
1 .......
2 .......

Turn = 2.
  0123456
0 .......
1 .......
2 .......
3 .......
4 ......f
5 .......
6 .......
7 .......
8 .......
9 .....t.
0 .......
1 .......
2 .......

Turn = 4.
  0123456
0 .......
1 .......
2 .......
3 .......
4 ......f
5 .......
6 .......
7 .......
8 .......
9 .....t.
0 .......
1 .......
2 .......

Turn = 6.
  0123456
0 .......
1 .......
2 .......
3 .......
4 ......f
5 .......
6 .......
7 .......
8 .......
9 .....t.
0 .......
1 .......
2 .......

Turn = 8.
  0123456
0 .......
1 .......
2 .......
3 .......
4 ......f
5 .......
6 .......
7 .......
8 .......
9 .....t.
0 .......
1 .......
2 .......

*** Darwin 9x8 ***
Turn = 0.
  01234567
0 .....h..
1 ...t....
2 .....t..
3 .h.t....
4 ...fh...
5 ...r.t..
6 ....f...
7 .f......
8 ...h..f.

Turn = 4.
  01234567
0 .....h..
1 ...t....
2 .....t..
3 ...t....
4 ...tt...
5 r....t..
6 .r..f...
7 .r......
8 ...h..f.
